Average infected: 
[0: 0.00034, 1: 0.01084, 2: 0.05968, 3: 0.17568, 4: 0.289, 5: 0.36689, 6: 0.41468, 7: 0.44223, 8: 0.45687, 9: 0.4605, 10: 0.45766, 11: 0.44851, 12: 0.43537, 13: 0.4205, 14: 0.40314, 15: 0.38421, 16: 0.36546, 17: 0.34661, 18: 0.32766, 19: 0.30898, 20: 0.2916, 21: 0.27385, 22: 0.25729, 23: 0.24182, 24: 0.22679, 25: 0.21234, 26: 0.19829, 27: 0.18548, 28: 0.17353, 29: 0.16241, 30: 0.15168, 31: 0.14147, 32: 0.13208, 33: 0.12359, 34: 0.11508, 35: 0.10756, 36: 0.10069, 37: 0.09391, 38: 0.08742, 39: 0.08138, 40: 0.07567, 41: 0.0702, 42: 0.06528, 43: 0.06052, 44: 0.05628, 45: 0.05243, 46: 0.04873, 47: 0.04549, 48: 0.04223, 49: 0.03936, 50: 0.0366, 51: 0.03407, 52: 0.03164, 53: 0.02958, 54: 0.02767, 55: 0.0258, 56: 0.02391, 57: 0.02219, 58: 0.02069, 59: 0.0192, 60: 0.01782, 61: 0.01657, 62: 0.01558, 63: 0.01451, 64: 0.0134, 65: 0.01231, 66: 0.01145, 67: 0.01051, 68: 0.00982, 69: 0.00908, 70: 0.00846, 71: 0.00781, 72: 0.00726, 73: 0.00672, 74: 0.00619, 75: 0.00574, 76: 0.00527, 77: 0.00493, 78: 0.00461, 79: 0.00422, 80: 0.00397, 81: 0.0037, 82: 0.00345, 83: 0.00318, 84: 0.00297, 85: 0.00271, 86: 0.00248, 87: 0.00231, 88: 0.00212, 89: 0.002, 90: 0.00181, 91: 0.00168, 92: 0.00156, 93: 0.00148, 94: 0.00136, 95: 0.00126, 96: 0.00115, 97: 0.00111, 98: 0.00105, 99: 0.00095, 100: 0.00084, 101: 0.00078, 102: 0.0007, 103: 0.00066, 104: 0.00061, 105: 0.00055, 106: 0.0005, 107: 0.00049, 108: 0.00046, 109: 0.00042, 110: 0.00039, 111: 0.00036, 112: 0.00031, 113: 0.00031, 114: 0.00029, 115: 0.00029, 116: 0.00027, 117: 0.00022, 118: 0.0002, 119: 0.0002, 120: 0.00019, 121: 0.00018, 122: 0.00017, 123: 0.00015, 124: 0.00014, ]
Average healed: 
[0: 0.0, 1: 1e-05, 2: 0.00076, 3: 0.00481, 4: 0.01712, 5: 0.03734, 6: 0.06295, 7: 0.09213, 8: 0.12227, 9: 0.15447, 10: 0.18642, 11: 0.21797, 12: 0.24945, 13: 0.28015, 14: 0.31018, 15: 0.33916, 16: 0.36608, 17: 0.39192, 18: 0.41638, 19: 0.43977, 20: 0.46099, 21: 0.48186, 22: 0.5011, 23: 0.51888, 24: 0.53567, 25: 0.55167, 26: 0.56689, 27: 0.58048, 28: 0.59333, 29: 0.60506, 30: 0.61635, 31: 0.62706, 32: 0.63688, 33: 0.64572, 34: 0.65454, 35: 0.66231, 36: 0.66947, 37: 0.67639, 38: 0.68299, 39: 0.68911, 40: 0.6949, 41: 0.70043, 42: 0.70546, 43: 0.71032, 44: 0.71466, 45: 0.7186, 46: 0.72235, 47: 0.72567, 48: 0.72899, 49: 0.7319, 50: 0.73469, 51: 0.73726, 52: 0.73971, 53: 0.74178, 54: 0.74371, 55: 0.74559, 56: 0.74751, 57: 0.74923, 58: 0.75074, 59: 0.75222, 60: 0.75361, 61: 0.75486, 62: 0.75585, 63: 0.75693, 64: 0.75804, 65: 0.75914, 66: 0.75999, 67: 0.76093, 68: 0.76163, 69: 0.76236, 70: 0.76299, 71: 0.76363, 72: 0.76419, 73: 0.76473, 74: 0.76525, 75: 0.7657, 76: 0.76617, 77: 0.76652, 78: 0.76683, 79: 0.76723, 80: 0.76747, 81: 0.76774, 82: 0.768, 83: 0.76827, 84: 0.76847, 85: 0.76874, 86: 0.76897, 87: 0.76913, 88: 0.76932, 89: 0.76945, 90: 0.76964, 91: 0.76977, 92: 0.76989, 93: 0.76997, 94: 0.77009, 95: 0.77019, 96: 0.7703, 97: 0.77034, 98: 0.7704, 99: 0.7705, 100: 0.7706, 101: 0.77067, 102: 0.77075, 103: 0.77079, 104: 0.77084, 105: 0.77089, 106: 0.77094, 107: 0.77096, 108: 0.77099, 109: 0.77102, 110: 0.77105, 111: 0.77109, 112: 0.77113, 113: 0.77114, 114: 0.77115, 115: 0.77116, 116: 0.77118, 117: 0.77122, 118: 0.77124, 119: 0.77125, 120: 0.77126, 121: 0.77127, 122: 0.77128, 123: 0.7713, 124: 0.77131, ]
Average healthy: 
[0: 0.99966, 1: 0.98915, 2: 0.93956, 3: 0.81951, 4: 0.69388, 5: 0.59577, 6: 0.52237, 7: 0.46565, 8: 0.42086, 9: 0.38502, 10: 0.35592, 11: 0.33352, 12: 0.31518, 13: 0.29935, 14: 0.28668, 15: 0.27663, 16: 0.26845, 17: 0.26148, 18: 0.25596, 19: 0.25125, 20: 0.2474, 21: 0.24429, 22: 0.24161, 23: 0.2393, 24: 0.23754, 25: 0.23599, 26: 0.23482, 27: 0.23404, 28: 0.23314, 29: 0.23253, 30: 0.23196, 31: 0.23147, 32: 0.23104, 33: 0.2307, 34: 0.23038, 35: 0.23013, 36: 0.22985, 37: 0.2297, 38: 0.22959, 39: 0.22951, 40: 0.22942, 41: 0.22937, 42: 0.22925, 43: 0.22916, 44: 0.22906, 45: 0.22897, 46: 0.22892, 47: 0.22884, 48: 0.22879, 49: 0.22874, 50: 0.22871, 51: 0.22866, 52: 0.22865, 53: 0.22864, 54: 0.22862, 55: 0.2286, 56: 0.22858, 57: 0.22858, 58: 0.22857, 59: 0.22857, 60: 0.22857, 61: 0.22857, 62: 0.22857, 63: 0.22856, 64: 0.22856, 65: 0.22855, 66: 0.22855, 67: 0.22855, 68: 0.22855, 69: 0.22855, 70: 0.22855, 71: 0.22855, 72: 0.22855, 73: 0.22855, 74: 0.22855, 75: 0.22855, 76: 0.22855, 77: 0.22855, 78: 0.22855, 79: 0.22855, 80: 0.22855, 81: 0.22855, 82: 0.22855, 83: 0.22855, 84: 0.22855, 85: 0.22855, 86: 0.22855, 87: 0.22855, 88: 0.22855, 89: 0.22855, 90: 0.22855, 91: 0.22855, 92: 0.22855, 93: 0.22855, 94: 0.22855, 95: 0.22855, 96: 0.22855, 97: 0.22855, 98: 0.22855, 99: 0.22855, 100: 0.22855, 101: 0.22855, 102: 0.22855, 103: 0.22855, 104: 0.22855, 105: 0.22855, 106: 0.22855, 107: 0.22855, 108: 0.22855, 109: 0.22855, 110: 0.22855, 111: 0.22855, 112: 0.22855, 113: 0.22855, 114: 0.22855, 115: 0.22855, 116: 0.22855, 117: 0.22855, 118: 0.22855, 119: 0.22855, 120: 0.22855, 121: 0.22855, 122: 0.22855, 123: 0.22855, 124: 0.22855, ]
